…
final
```

    ## # A tibble: 1,200 x 7
    ##    state group  year halfyear chipMedicaidEnroll suppression totalRX
    ##    <chr> <dbl> <dbl>    <dbl>              <dbl> <chr>         <dbl>
    ##  1 AK        0  2011        1             118117 T                 0
    ##  2 AK        0  2011        1             118117 F              1445
    ##  3 AK        0  2011        2             119175 T                 0
    ##  4 AK        0  2011        2             119175 F              1355
    ##  5 AK        0  2012        1             120240 T                 0
    ##  6 AK        0  2012        1             120240 F              1638
    ##  7 AK        0  2012        2             119723 T                 0
    ##  8 AK        0  2012        2             119723 F              1671
    ##  9 AK        0  2013        1             120388 T                 0
    ## 10 AK        0  2013        1             120388 F              1821
    ## # ... with 1,190 more rows
…
finalRx
```

    ## # A tibble: 7,334 x 9
    ##    state group   year halfyear chipMedicaidEnr~ gennme    prodnme    suppression
    ##    <chr> <fct>  <dbl>    <dbl>            <dbl> <chr>     <chr>      <chr>      
    ##  1 AK    Contr~  2011        1           118117 Arformot~ BROVANA    T          
    ##  2 AK    Contr~  2011        1           118117 Albutero~ COMBIVENT  F          
    ##  3 AK    Contr~  2011        1           118117 Albutero~ DUONEB     T          
    ##  4 AK    Contr~  2011        1           118117 Formoter~ FORADIL A~ T          
    ##  5 AK    Contr~  2011        1           118117 Albutero~ IPRATROPI~ F          
    ##  6 AK    Contr~  2011        1           118117 Albutero~ IPRATROPI~ T          
    ##  7 AK    Contr~  2011        1           118117 Formoter~ PERFOROMI~ T          
    ##  8 AK    Contr~  2011        2           119175 Arformot~ BROVANA    T          
    ##  9 AK    Contr~  2011        2           119175 Albutero~ COMBIVENT  F          
    ## 10 AK    Contr~  2011        2           119175 Roflumil~ DALIRESP   T          
    ## # ... with 7,324 more rows, and 1 more variable: totalRX <dbl>
…
